signal_UI::UserInterface::digitPressed,7 
signal_UI::UserInterface::functionButtonPressed,23 
signal_UI::UserInterface::switchButtonPressed,7 
signal_UI::UserInterface::operationButtonPressed,5 
function_deleteAllInstances,3 
class operation_CalculatedNumber::createNewFromValue,9 
class operation_CalculatedNumber::canBeShown,1 
operation_CalculatedNumber::roundDigitally,13 
operation_CalculatedNumber::trim,4 
class operation_CalculatedNumber::createNegativePowerDigits,12 
class operation_CalculatedNumber::createPositivePowerDigits,8 
operation_CalculatedNumber::getSuperNumber,0 
class operation_Digit::createNew,0 
operation_Digit::unrelateAndDelete,2 
operation_Digit::establishRelations,2 
operation_Digit::getDigitOnTheLeft,0 
operation_Digit::isMostSignificant,2 
class operation_EnteredNumber::createNewFromFirstDigit,1 
operation_EnteredNumber::getSuperNumber,0 
operation_Number::getScreenIfShowingThisNumber,0 
operation_Number::isShownOnScreen,1 
operation_Number::getNegativePowerDigits,0 
operation_Number::getAllDigits,0 
operation_Number::setNewLeastSignificantDigit,0 
operation_Number::getLeastSignificantDigit,0 
operation_Number::getOperationIfActingAsAsFirstOperand,0 
operation_Number::getOperationIfActingAsSecondOperand,0 
operation_Number::printDigits,5 
operation_Number::unrelateAndDelete,3 
operation_Number::getMostSignificantDigit,0 
class operation_Number::createInitialZeroDigit,1 
operation_Number::addNegativePowerLeastSignificantDigit,1 
operation_Number::addNewMostSignificantDigit,1 
operation_Number::shouldIncrementValueOfNextDigit,0 
operation_Number::shouldDeleteLeastSignificantDigit,0 
operation_Number::unrelateAndDeleteNegativePowerLeastSiginificantDigit,2 
operation_Number::unrelateAndDeleteLeastSignificantNegativePowerZeroDigit,3 
operation_Number::addNewLeastSignificantDigit,10 
operation_Number::addNonInitialZeroPowerDigit,2 
operation_Number::deleteLeastSignificantDigit,8 
operation_Number::decrementDigitPowers,1 
operation_Number::incrementDigitPowers,1 
operation_Number::isInitialZeroDigitCase,0 
operation_Number::getPositivePowerDigits,0 
class operation_Operation::createNew,1 
operation_Operation::calculateResult,6 
operation_Operation::unrelateBeforeDelete,7 
class operation_Operation::clearOperation,2 
operation_Operation::doActualCalculation,13 
operation_Operation::getFirstOperand,0 
operation_Operation::getSecondOperand,0 
operation_Operation::setFirstOperand,0 
operation_Operation::setSecondOperand,0 
operation_Operation::getScreenIfShowingOperationSymbol,0 
class operation_Operation::getSymbolFromType,4 
operation_Operation::stopShowingSymbol,2 
operation_Screen::updateUI,2 
operation_Screen::clear,8 
operation_Screen::getShownNumber,0 
operation_Screen::getCurrentlyShownOperation,0 
operation_Screen::setNewShownNumber,1 
operation_Screen::setCurrentOperation,2 
operation_Screen::stopShowingCurrentOperationSymbol,2 
derived attribute_Number::absoluteDigitalValue,5 
derived attribute_Operation::symbol,4 
derived attribute_Screen::content,15 
state_EnteredNumber::Entering negative power digits,2 
state_EnteredNumber::Entering non-negative power digits,2 
state_Operation::Finished,2 
transition_EnteredNumber1: decimalDotPressed,0 
transition_EnteredNumber1: decimalDotPressed,0 
transition_EnteredNumber6: addDigit,2 
transition_EnteredNumber7: deleteDigit,2 
transition_EnteredNumber6: addDigit,2 
transition_EnteredNumber7: deleteDigit,2 
transition_Operation1: EqualsPressed,1 
transition_Operation2: secondOperandFirstDigitEntered,6 
transition_Operation1: EqualsPressed,4 
TOTAL NUMBER OF NON_EMPTY BODIES: ,78 
TOTAL CC OF BODIES (decisions and calls): ,237 
