signal_UI::UserInterface::digitPressed,10 
signal_UI::UserInterface::functionButtonPressed,25 
signal_UI::UserInterface::switchButtonPressed,7 
signal_UI::UserInterface::operationButtonPressed,4 
function_deleteAllInstances,3 
class operation_Digit::createNew,0 
operation_Digit::unrelateAndDelete,2 
operation_Digit::establishRelations,2 
operation_Digit::getDigitOnTheLeft,0 
operation_Digit::isMostSignificant,2 
class operation_Error::createAndShow,1 
operation_Number::unrelateAndDelete,6 
class operation_Number::canBeShown,1 
class operation_Number::createPositivePowerDigits,8 
class operation_Number::createNegativePowerDigits,9 
class operation_Number::createNewFromValue,11 
class operation_Number::createNewFromFirstDigit,2 
operation_Number::addNewLeastSignificantDigit,12 
operation_Number::deleteLeastSignificantDigit,10 
operation_Number::incrementDigitPowers,1 
operation_Number::decrementDigitPowers,1 
operation_Number::trim,4 
operation_Number::roundDigitally,12 
operation_Number::printDigits,5 
class operation_Number::createInitialZeroDigit,1 
operation_Number::getOperationIfActingAsSecondOperand,0 
operation_Number::getOperationIfActingAsFirstOperand,0 
operation_Number::getLeastSignificantDigit,0 
operation_Number::setNewLeastSignificantDigit,0 
operation_Number::getAllDigits,0 
operation_Number::addNonInitialZeroPowerDigit,2 
operation_Number::addNegativePowerLeastSignificantDigit,1 
operation_Number::isInitialZeroDigitCase,0 
operation_Number::shouldIncrementValueOfNextDigit,0 
operation_Number::addNewMostSignificantDigit,1 
operation_Number::shouldDeleteLeastSignificantDigit,0 
operation_Number::unrelateAndDeleteNegativePowerLeastSiginificantDigit,2 
operation_Number::getNegativePowerDigits,0 
operation_Number::isShownAsNegative,1 
operation_Number::isShownOnScreen,1 
operation_Number::getScreen,0 
class operation_Operation::createNew,3 
operation_Operation::calculateResult,5 
operation_Operation::unrelateAndDelete,7 
class operation_Operation::clearOperation,2 
operation_Operation::doActualCalculation,7 
operation_Operation::getFirstOperand,0 
operation_Operation::getSecondOperand,0 
operation_Operation::setFirstOperand,0 
operation_Operation::setSecondOperand,0 
operation_Operation::getScreenIfShowingOperationSymbol,0 
operation_Operation::stopShowingSymbol,2 
class operation_Operation::getSymbolFromType,4 
class operation_Screen::createNew,1 
operation_Screen::updateUI,2 
operation_Screen::clear,6 
operation_Screen::changeSignOfCurrentlyShownNumber,1 
operation_Screen::createAndShowDigitally,6 
operation_Screen::getShownNumber,0 
operation_Screen::getCurrentlyShownOperation,0 
operation_Screen::indicateAsNegative,0 
operation_Screen::setNewShownNumber,1 
operation_Screen::getError,0 
operation_Screen::deleteErrorIfShown,2 
derived attribute_Number::absoluteDigitalValue,5 
derived attribute_Operation::symbol,4 
derived attribute_Screen::content,16 
TOTAL NUMBER OF NON_EMPTY BODIES: ,67 
TOTAL CC OF BODIES (decisions and calls): ,221 
